"id","bank_id","name","address_line_1","address_line_2","address_line_3","address_city","address_county","address_state","address_postcode","address_country_code","location_latitude","location_longitude","meta_license_id","meta_license_name","monday_opening_time","monday_closing_time","tuesday_opening_time","tuesday_closing_time","wednesday_opening_time","wednesday_closing_time","thursday_opening_time","thursday_closing_time","friday_opening_time","friday_closing_time","saturday_opening_time","saturday_closing_time","sunday_opening_time","sunday_closing_time","is_accessible","located_at","more_info","has_deposit_capability"
"atm-id-123","citizens.0201.us-b.cb","Mass General Hospital","55 Fruit Street","","","Boston","","Massachusetts","02114","US","11.45","11.45","5","TESOBE","10:00","18:00","10:00","18:00","10:00","18:00","10:00","18:00","10:00","18:00","10:00","18:00","10:00","18:00","true","Full service store","short walk to the lake from here","true"
"atm-id-124","citizens.0201.us-b.cb","Mbta South Station K-1","194-198 Summer Street","","","Boston","","Massachusetts","02210-1117","US","11.45","11.45","5","TESOBE","10:00","18:00","10:00","18:00","10:00","18:00","10:00","18:00","10:00","18:00","10:00","18:00","10:00","18:00","true","Full service store","short walk to the lake from here","true"
"atm-id-126","citizens.0201.us-b.cb","South Station Food Court 2","650 Atlantic Avenue","","","Boston","","Massachusetts","02110","US","11.45","11.45","5","TESOBE","10:00","18:00","10:00","18:00","10:00","18:00","10:00","18:00","10:00","18:00","10:00","18:00","10:00","18:00","true","Full service store","short walk to the lake from here","true"
"atm-id-127","citizens.0201.us-b.cb","South Station Bus Terminal","700 Atlantic Avenue","","","Boston","","Massachusetts","02111","US","11.45","11.45","5","TESOBE","10:00","18:00","10:00","18:00","10:00","18:00","10:00","18:00","10:00","18:00","10:00","18:00","10:00","18:00","true","Full service store","short walk to the lake from here","true"
"atm-octopus-048954de393cc0efa4604f684622adce","octopus","Octopus ATM #1","215;217","Adams Street","Dorchester","Boston","Suffolk County","Massachusetts","02122","US","42.3015734","-71.0601999","5","octopus","00:00","00:00","00:00","00:00","00:00","00:00","00:00","00:00","00:00","00:00","00:00","00:00","00:00","00:00","true","Citizens Bank","Rating: ","true"
"atm-octopus-0f256cc29eb375df3f34ca1f68497a0e","octopus","Octopus ATM #1","701","Belmont Street","","Brockton","Plymouth County","Massachusetts","02301","US","42.071246","-71.0472181","5","octopus","00:00","00:00","00:00","00:00","00:00","00:00","00:00","00:00","00:00","00:00","00:00","00:00","00:00","00:00","true","Citizens Bank Supermarket Branch","Rating: 5","true"
"atm-octopus-19b3620d8e40846d4c3fbada0c9da7fa","octopus","Octopus ATM #3","","Veterans of Foreign Wars Parkway","","Brookline","Norfolk County","Massachusetts","02132-1239","US","42.2964753","-71.1572013","5","octopus","00:00","00:00","00:00","00:00","00:00","00:00","00:00","00:00","00:00","00:00","00:00","00:00","00:00","00:00","true","Citizens Bank","Rating: ","true"
"atm-octopus-252c49d68e167ce03897d7b65fcc0304","octopus","Octopus ATM #2","","Normandy Street","Dorchester","Boston","Suffolk County","Massachusetts","02121","US","42.3092045","-71.0810685","5","octopus","00:00","00:00","00:00","00:00","00:00","00:00","00:00","00:00","00:00","00:00","00:00","00:00","00:00","00:00","true","Stop & Shop","Rating: 2","true"
"atm-octopus-279db8edcb8b1c9d762bbd1a84aa57ec","octopus","Octopus ATM #3","","Boylston Street","Fenway","Boston","Suffolk County","Massachusetts","02215","US","42.3436","-71.1","5","octopus","00:00","00:00","00:00","00:00","00:00","00:00","00:00","00:00","00:00","00:00","00:00","00:00","00:00","00:00","true","Star Market","Rating: 5","true"
"atm-octopus-3591ddfb4f5c8c593778197d5ad5b32f","octopus","Octopus ATM #4","224","Elliott Street","","Beverly","Essex County","Massachusetts","01915-4202","US","42.5549786","-70.8866958","5","octopus","00:00","00:00","00:00","00:00","00:00","00:00","00:00","00:00","00:00","00:00","00:00","00:00","00:00","00:00","true","Citizens Bank Supermarket Branch","Rating: ","true"
"atm-octopus-3a3a9fd0e59b07ac96c3a1074ef0c009","octopus","Octopus ATM #5","","Salina Road","Dorchester","Boston","Suffolk County","Massachusetts","02122","US","42.2926294","-71.0488482","5","octopus","00:00","00:00","00:00","00:00","00:00","00:00","00:00","00:00","00:00","00:00","00:00","00:00","00:00","00:00","true","Stop & Shop","Rating: 5","true"
"atm-octopus-3c87a4b9ccb526335fa8bd19491af0b7","octopus","Octopus ATM #4","","Bennington Street","East Boston","Boston","Suffolk County","Massachusetts","02150","US","42.3752462","-71.038563","5","octopus","00:00","00:00","00:00","00:00","00:00","00:00","00:00","00:00","00:00","00:00","00:00","00:00","00:00","00:00","true","Citizens Bank","Rating: 3","true"
"atm-octopus-42e240a630ca8675e8e9680ed56f0261","octopus","Octopus ATM #5","","John F. Kennedy Street","","Cambridge","Middlesex County","Massachusetts","02138-2903","US","42.3731046","-71.1193674","5","octopus","00:00","00:00","00:00","00:00","00:00","00:00","00:00","00:00","00:00","00:00","00:00","00:00","00:00","00:00","true","Citizens Bank","Rating: 1","true"
"atm-octopus-65d970503da1f69ebdce0ed87ee4674d","octopus","Octopus ATM #6","771;775;779","McGrath Highway","","Somerville","Middlesex County","Massachusetts","02145","US","42.391492","-71.0855253","5","octopus","00:00","00:00","00:00","00:00","00:00","00:00","00:00","00:00","00:00","00:00","00:00","00:00","00:00","00:00","true","Citizens Bank Supermarket Branch","Rating: ","true"
"atm-octopus-6e4c0b7e860f82d182380459313b6a39","octopus","Octopus ATM #9","429","Harvard Street","","Brookline","Suffolk County","Massachusetts","02446","US","42.3458579","-71.1273216","5","octopus","00:00","00:00","00:00","00:00","00:00","00:00","00:00","00:00","00:00","00:00","00:00","00:00","00:00","00:00","true","Citizens Bank","Rating: ","true"
"atm-octopus-7bb28eb6f4ec6ef7b28007b310cabcd5","octopus","Octopus ATM #7","40;41","Union Square","","Somerville","Middlesex County","Massachusetts","02143","US","42.3803301","-71.0964349","5","octopus","00:00","00:00","00:00","00:00","00:00","00:00","00:00","00:00","00:00","00:00","00:00","00:00","00:00","00:00","true","Citizens Bank","Rating: ","true"
"atm-octopus-8472a88adac3431a714eceda17c40872","octopus","Octopus ATM #8","","Logan Airport Terminal B","East Boston","Boston","Suffolk County","Massachusetts","02210","US","42.3620732","-71.0192089","5","octopus","00:00","00:00","00:00","00:00","00:00","00:00","00:00","00:00","00:00","00:00","00:00","00:00","00:00","00:00","true","Citizens Bank","Rating: ","true"
"atm-octopus-92a12f444d29fe29a11667c9a61d505a","octopus","Octopus ATM #9","1690","Revere Beach Parkway","","Everett","Middlesex County","Massachusetts","02150","US","42.4006001","-71.042441","5","octopus","00:00","00:00","00:00","00:00","00:00","00:00","00:00","00:00","00:00","00:00","00:00","00:00","00:00","00:00","true","Citizens Bank Supermarket Branch","Rating: ","true"
"atm-octopus-9405e7f12a5aadacb73de43f9298333a","octopus","Octopus ATM #10","1981;1985","Centre Street","West Roxbury","Boston","Suffolk County","Massachusetts","02132","US","42.282299","-71.1580572","5","octopus","00:00","00:00","00:00","00:00","00:00","00:00","00:00","00:00","00:00","00:00","00:00","00:00","00:00","00:00","true","Citizens Bank","Rating: ","true"
"atm-octopus-96798d5ff8b1668188ba6ffaaec658e5","octopus","Octopus ATM #13","","Columbia Road","Dorchester","Boston","Suffolk County","Massachusetts","02125","US","42.3167417","-71.0660265","5","octopus","00:00","00:00","00:00","00:00","00:00","00:00","00:00","00:00","00:00","00:00","00:00","00:00","00:00","00:00","true","Citizens Bank","Rating: ","true"
"atm-octopus-971bdc5e74b9178f0510776958e90f62","octopus","Octopus ATM #11","1164","Centre Green","Newton Corner","Newton","Middlesex County","Massachusetts","02459","US","42.3317439","-71.1939841","5","octopus","00:00","00:00","00:00","00:00","00:00","00:00","00:00","00:00","00:00","00:00","00:00","00:00","00:00","00:00","true","","Rating: ","true"
"atm-octopus-9b32a75202b7039c8119ce317cc74d31","octopus","Octopus ATM #12","41","Burlington Mall Road","","Burlington","Middlesex County","Massachusetts","01805","US","42.4848754","-71.2051901","5","octopus","00:00","00:00","00:00","00:00","00:00","00:00","00:00","00:00","00:00","00:00","00:00","00:00","00:00","00:00","true","","Rating: ","true"
"atm-octopus-a428a76c8dc0a81320c72d2b815b1380","octopus","Octopus ATM #15","310","Allston Street","Allston","Boston","Suffolk County","Massachusetts","02134","US","42.3433114","-71.1416256","5","octopus","00:00","00:00","00:00","00:00","00:00","00:00","00:00","00:00","00:00","00:00","00:00","00:00","00:00","00:00","true","Citizens Bank","Rating: ","true"
"atm-octopus-a8ca76d410b9be34bb5174c8a6e8b29e","octopus","Octopus ATM #13","719;721;723","Main Street","","Waltham","Middlesex County","Massachusetts","02454","US","42.3763771","-71.2388363","5","octopus","00:00","00:00","00:00","00:00","00:00","00:00","00:00","00:00","00:00","00:00","00:00","00:00","00:00","00:00","true","Citizens Bank","Rating: 4","true"
"atm-octopus-cfe20bce12422a1cf267cf92c9d7d0bf","octopus","Octopus ATM #16","","Massachusetts Avenue","South Boston","Boston","Suffolk County","Massachusetts","01125","US","42.3266276","-71.0651908","5","octopus","00:00","00:00","00:00","00:00","00:00","00:00","00:00","00:00","00:00","00:00","00:00","00:00","00:00","00:00","true","Citizens Bank Supermarket Branch","Rating: ","true"
"atm-octopus-d331f46478aae5bf0c29b04afa5324b8","octopus","Octopus ATM #17","777","South Street","West Roxbury","Boston","Suffolk County","Massachusetts","02131-3025","US","42.287426","-71.1296031","5","octopus","00:00","00:00","00:00","00:00","00:00","00:00","00:00","00:00","00:00","00:00","00:00","00:00","00:00","00:00","true","Citizens Bank","Rating: ","true"
"atm-octopus-e1bb22acdba58b0a42c078a8a2c3c63f","octopus","Octopus ATM #18","48","Waltham Street","South End","Boston","Suffolk County","Massachusetts","02118","US","42.3417297","-71.0690828","5","octopus","00:00","00:00","00:00","00:00","00:00","00:00","00:00","00:00","00:00","00:00","00:00","00:00","00:00","00:00","true","Citizens Bank","Rating: ","true"
"atm-octopus-e5ec36c2076c408d09188cd6a546a286","octopus","Octopus ATM #14","419","Boston Avenue","","Medford","Middlesex County","Massachusetts","02155","US","42.4084878","-71.1182069","5","octopus","00:00","00:00","00:00","00:00","00:00","00:00","00:00","00:00","00:00","00:00","00:00","00:00","00:00","00:00","true","","Rating: 3","true"
"atm-octopus-e88ecb4b6872e31202ef7d577a4b1697","octopus","Octopus ATM #20","950","American Legion Highway","Hyde Park","Boston","Suffolk County","Massachusetts","02131","US","42.2756756","-71.1142639","5","octopus","00:00","00:00","00:00","00:00","00:00","00:00","00:00","00:00","00:00","00:00","00:00","00:00","00:00","00:00","true","Citizens Bank Supermarket Branch","Rating: 3","true"
"atm-octopus-edb6ba602fc64556e053286e50f1da3b","octopus","Octopus ATM #21","315;319;325;327;329;335","Harvard Street","","Brookline","Norfolk County","Massachusetts","02446","US","42.3436175","-71.1233298","5","octopus","00:00","00:00","00:00","00:00","00:00","00:00","00:00","00:00","00:00","00:00","00:00","00:00","00:00","00:00","true","Citizens Bank","Rating: 5","true"
"atm-octopus-f38d6d5392fc1abc516c609103804d57","octopus","Octopus ATM #15","","Prospect Street","","Cambridge","Middlesex County","Massachusetts","02139","US","42.3660435","-71.1042804","5","octopus","00:00","00:00","00:00","00:00","00:00","00:00","00:00","00:00","00:00","00:00","00:00","00:00","00:00","00:00","true","Citizens Bank","Rating: ","true"
"atm-octopus-f4962f7db1bcacb6d498a09f96567e1b","octopus","Octopus ATM #24","","Miner Street","Fenway","Boston","Suffolk County","Massachusetts","02215","US","42.3506708","-71.1082113","5","octopus","00:00","00:00","00:00","00:00","00:00","00:00","00:00","00:00","00:00","00:00","00:00","00:00","00:00","00:00","true","Citizens Bank","Rating: ","true"
"atm-octopus-f8450ab6c7f1957adb6dee95e3c11119","octopus","Octopus ATM #16","","Conifer Hill Drive","","Danvers","Essex County","Massachusetts","01937","US","42.5849069","-70.9641535","5","octopus","00:00","00:00","00:00","00:00","00:00","00:00","00:00","00:00","00:00","00:00","00:00","00:00","00:00","00:00","true","Stop & Shop","Rating: ","true"
